time;1999;554;1590
2015-05-01;0.0;0.0;0.0
2015-05-02;0.0;0.0;0.0
2015-05-03;6.6;6.3;6.5
2015-05-04;6.3;5.3;3.1
2015-05-05;4.0;1.3;1.2
2015-05-06;2.5;1.8;1.4
2015-05-07;2.5;3.1;0.0
2015-05-08;0.0;0.4;0.4
2015-05-09;1.1;0.1;1.0
2015-05-10;0.0;0.0;0.0
2015-05-11;0.0;0.0;0.0
2015-05-12;0.0;0.0;0.0
2015-05-13;0.0;0.0;0.0
2015-05-14;0.0;0.0;0.1
2015-05-15;0.0;0.0;0.0
2015-05-16;1.1;0.8;1.5
2015-05-17;0.0;0.0;0.0
2015-05-18;1.9;1.9;2.1
2015-05-19;5.2;5.3;4.9
2015-05-20;0.1;0.3;1.4
2015-05-21;0.0;0.0;0.0
2015-05-22;0.0;0.0;0.0
2015-05-23;0.0;0.0;0.0
2015-05-24;1.2;1.0;0.7
2015-05-25;0.4;0.2;1.1
2015-05-26;0.3;0.3;0.0
2015-05-27;0.0;0.0;0.0
2015-05-28;0.9;1.3;2.5
2015-05-29;1.7;2.8;1.5
2015-05-30;1.2;1.9;5.5
2015-05-31;7.0;7.0;4.6
2015-06-01;0.0;0.0;0.0
2015-06-02;1.7;1.2;1.1
2015-06-03;0.0;0.0;0.0
2015-06-04;0.0;0.0;0.0
2015-06-05;3.6;4.4;6.8
2015-06-06;0.0;0.0;0.0
2015-06-07;0.0;0.0;0.0
2015-06-08;0.0;0.0;0.0
2015-06-09;0.0;0.0;0.0
2015-06-10;0.0;0.0;0.0
2015-06-11;0.0;0.0;0.0
2015-06-12;0.2;0.1;0.6
2015-06-13;0.8;1.0;0.8
2015-06-14;0.0;0.0;0.1
2015-06-15;0.0;0.0;0.0
2015-06-16;0.0;0.0;0.0
2015-06-17;4.3;3.6;4.8
2015-06-18;2.2;0.5;0.0
2015-06-19;2.1;3.7;1.7
2015-06-20;0.6;0.4;0.2
2015-06-21;6.4;7.4;8.2
2015-06-22;6.5;5.8;13.1
2015-06-23;3.0;4.2;2.7
2015-06-24;0.0;0.0;0.0
2015-06-25;0.0;0.0;0.0
2015-06-26;3.1;1.0;0.0
2015-06-27;0.0;0.0;0.0
2015-06-28;0.0;0.2;0.0
2015-06-29;0.0;0.0;0.0
2015-06-30;0.0;0.0;0.0
2015-07-01;0.0;0.0;0.0
2015-07-02;0.6;0.1;0.0
2015-07-03;0.0;0.0;0.0
2015-07-04;0.6;0.2;2.1
2015-07-05;1.8;0.2;0.1
2015-07-06;0.0;0.0;0.0
2015-07-07;0.2;0.1;0.1
2015-07-08;7.3;9.1;10.4
2015-07-09;1.2;0.0;0.4
2015-07-10;0.0;0.0;0.0
2015-07-11;0.0;0.0;0.0
2015-07-12;0.9;0.5;1.7
2015-07-13;3.2;3.0;8.6
2015-07-14;0.4;0.8;3.8
2015-07-15;0.0;1.8;0.3
2015-07-16;0.3;1.4;0.0
2015-07-17;0.6;2.7;0.4
2015-07-18;4.2;2.9;7.2
2015-07-19;0.6;1.7;0.8
2015-07-20;0.1;8.8;0.9
2015-07-21;0.0;0.2;0.1
2015-07-22;0.0;0.0;0.0
2015-07-23;0.0;0.0;0.0
2015-07-24;1.4;1.0;1.2
2015-07-25;7.3;7.5;5.6
2015-07-26;1.8;2.0;3.4
2015-07-27;3.8;8.0;2.9
2015-07-28;0.3;0.1;0.0
2015-07-29;6.0;2.5;3.5
2015-07-30;2.5;1.2;5.3
2015-07-31;0.0;0.0;0.0
2015-08-01;0.0;0.0;0.0
2015-08-02;0.0;0.0;0.0
2015-08-03;2.0;0.6;0.0
2015-08-04;7.1;4.9;5.2
2015-08-05;0.0;0.0;0.0
2015-08-06;4.9;4.3;11.0
2015-08-07;8.4;2.5;4.7
2015-08-08;0.0;0.0;0.0
2015-08-09;0.0;0.0;0.0
2015-08-10;1.8;0.2;0.0
2015-08-11;0.0;0.0;0.0
2015-08-12;0.0;0.0;0.0
2015-08-13;4.0;1.9;0.2
2015-08-14;1.3;0.0;0.0
2015-08-15;5.3;22.1;21.9
2015-08-16;47.6;56.3;25.0
2015-08-17;23.6;26.5;12.8
2015-08-18;0.1;0.0;0.0
2015-08-19;0.0;0.0;0.0
2015-08-20;0.0;0.0;0.0
2015-08-21;0.0;0.0;0.0
2015-08-22;0.0;0.0;0.0
2015-08-23;4.5;7.6;8.6
2015-08-24;3.7;0.6;6.3
2015-08-25;3.3;4.5;1.9
2015-08-26;0.3;0.2;0.2
2015-08-27;8.6;5.4;12.0
2015-08-28;0.1;0.0;0.0
2015-08-29;0.3;13.5;0.0
2015-08-30;9.6;15.6;0.0
2015-08-31;6.5;3.8;5.1
2015-09-01;3.2;0.6;1.7
2015-09-02;1.0;0.7;1.8
2015-09-03;0.5;0.4;0.1
2015-09-04;14.6;11.3;3.8
2015-09-05;3.2;5.5;2.4
2015-09-06;2.3;1.6;1.3
2015-09-07;1.2;0.6;0.7
2015-09-08;0.5;0.0;0.0
2015-09-09;0.0;0.0;0.0
2015-09-10;0.0;0.0;0.0
2015-09-11;0.0;0.0;0.0
2015-09-12;2.6;2.3;2.0
2015-09-13;2.6;1.6;0.8
2015-09-14;6.7;14.1;3.7
2015-09-15;3.5;3.6;2.7
2015-09-16;8.5;7.2;12.4
2015-09-17;5.1;7.8;8.1
2015-09-18;0.1;0.0;0.4
2015-09-19;0.6;6.7;0.8
2015-09-20;0.0;0.2;0.0
2015-09-21;1.1;1.5;0.9
2015-09-22;14.5;20.8;25.4
2015-09-23;0.6;0.1;1.8
2015-09-24;0.3;0.6;0.4
2015-09-25;3.7;0.0;0.1
2015-09-26;0.1;0.0;0.0
2015-09-27;0.0;0.0;0.0
2015-09-28;0.0;0.0;0.0
2015-09-29;0.0;0.0;0.0
2015-09-30;0.0;0.0;0.0
2015-10-01;0.0;0.0;0.0
2015-10-02;0.0;0.0;0.0
2015-10-03;0.0;0.0;0.0
2015-10-04;0.1;0.0;0.0
2015-10-05;6.2;6.0;8.2
2015-10-06;0.3;0.0;0.0
2015-10-07;0.8;0.1;0.2
2015-10-08;2.4;2.2;0.6
2015-10-09;0.0;0.0;0.0
2015-10-10;0.0;0.0;0.0
2015-10-11;0.0;0.0;0.0
2015-10-12;0.0;0.0;0.0
2015-10-13;0.0;0.0;0.1
2015-10-14;6.7;7.1;6.5
2015-10-15;8.1;8.7;9.1
2015-10-16;15.8;14.1;12.0
2015-10-17;0.0;0.0;0.0
2015-10-18;1.1;1.1;1.3
2015-10-19;0.0;0.0;0.0
2015-10-20;0.1;0.0;0.1
2015-10-21;0.2;0.4;0.4
2015-10-22;1.5;1.4;0.8
2015-10-23;0.0;0.0;0.0
2015-10-24;1.4;0.6;0.5
2015-10-25;0.6;0.3;0.7
2015-10-26;0.0;0.0;0.0
2015-10-27;0.1;0.0;0.0
2015-10-28;0.0;0.0;0.0
2015-10-29;0.2;0.0;0.0
2015-10-30;0.0;0.0;0.0
2015-10-31;0.1;0.0;0.0
2015-11-01;0.0;0.0;0.0
2015-11-02;0.2;0.0;0.0
2015-11-03;0.0;0.0;0.0
2015-11-04;0.2;0.2;0.3
2015-11-05;4.9;4.8;4.4
2015-11-06;5.1;1.7;0.7
2015-11-07;1.8;1.8;0.2
2015-11-08;3.4;2.0;8.6
2015-11-09;0.0;0.3;0.0
2015-11-10;3.0;2.3;0.4
2015-11-11;0.1;0.0;0.0
2015-11-12;0.0;0.0;0.0
2015-11-13;3.2;1.6;5.0
2015-11-14;9.8;11.5;11.3
2015-11-15;3.4;4.7;4.7
2015-11-16;4.1;6.2;10.0
2015-11-17;4.6;4.1;2.9
2015-11-18;1.1;0.0;0.2
2015-11-19;5.9;6.7;9.1
2015-11-20;1.1;0.9;1.7
2015-11-21;2.5;1.3;0.5
2015-11-22;0.7;0.1;1.3
2015-11-23;0.1;0.0;0.0
2015-11-24;8.6;7.7;9.2
2015-11-25;0.3;1.9;0.3
2015-11-26;0.0;0.0;0.0
2015-11-27;3.2;2.9;2.1
2015-11-28;2.5;1.8;2.9
2015-11-29;13.1;8.8;13.8
2015-11-30;23.7;17.4;23.8
2015-12-01;1.1;1.1;3.1
2015-12-02;0.0;0.0;0.0
2015-12-03;4.9;4.9;3.1
2015-12-04;0.2;0.3;0.2
2015-12-05;0.0;0.0;0.0
2015-12-06;0.3;0.2;0.0
2015-12-07;0.0;0.3;0.0
2015-12-08;4.2;5.4;3.6
2015-12-09;0.0;0.0;0.0
2015-12-10;5.0;4.2;3.8
2015-12-11;2.4;4.9;3.8
2015-12-12;4.9;5.1;2.0
2015-12-13;0.1;0.0;0.6
2015-12-14;0.1;0.0;0.0
2015-12-15;0.8;1.1;2.2
2015-12-16;2.4;3.0;3.4
2015-12-17;0.1;0.1;0.0
2015-12-18;0.0;0.0;0.0
2015-12-19;0.0;0.0;0.0
2015-12-20;0.6;0.6;1.5
2015-12-21;1.8;3.4;3.7
2015-12-22;0.3;2.3;0.3
2015-12-23;0.1;0.3;0.0
2015-12-24;3.1;1.4;1.4
2015-12-25;0.3;0.1;1.2
2015-12-26;0.0;0.0;0.0
2015-12-27;0.0;0.0;0.0
2015-12-28;0.0;0.0;0.0
2015-12-29;0.0;0.0;0.0
2015-12-30;0.2;0.6;1.4
2015-12-31;1.7;1.2;0.7
2016-01-01;0.1;0.0;0.0
2016-01-02;6.5;6.9;5.0
2016-01-03;8.7;8.5;8.4
2016-01-04;4.7;5.3;2.4
2016-01-05;2.0;1.4;0.2
2016-01-06;1.3;1.4;0.6
2016-01-07;6.3;7.6;4.7
2016-01-08;0.0;0.0;0.0
2016-01-09;0.3;0.1;0.2
2016-01-10;0.0;0.1;0.5
2016-01-11;5.9;5.4;7.2
2016-01-12;6.5;5.7;4.5
2016-01-13;6.4;1.6;3.6
2016-01-14;9.7;6.5;4.7
2016-01-15;0.5;0.0;0.1
2016-01-16;1.5;0.9;1.2
2016-01-17;0.0;0.0;0.0
2016-01-18;0.0;0.0;0.0
2016-01-19;0.0;0.0;0.0
2016-01-20;0.0;0.0;0.0
2016-01-21;0.0;0.0;0.0
2016-01-22;4.7;4.9;6.1
2016-01-23;0.1;0.0;0.1
2016-01-24;1.5;1.1;1.4
2016-01-25;0.0;0.0;0.0
2016-01-26;0.9;1.1;1.2
2016-01-27;11.9;11.9;6.8
2016-01-28;0.1;0.0;0.0
2016-01-29;5.4;4.9;4.8
2016-01-30;14.7;17.6;12.5
2016-01-31;6.9;3.6;8.6
2016-02-01;1.6;0.8;1.6
2016-02-02;3.0;2.7;3.6
2016-02-03;0.1;0.0;0.6
2016-02-04;3.8;4.5;3.0
2016-02-05;1.3;1.4;0.7
2016-02-06;0.0;0.0;0.0
2016-02-07;2.7;2.3;2.5
2016-02-08;1.8;5.4;3.7
2016-02-09;21.5;19.4;20.5
2016-02-10;5.0;3.6;5.9
2016-02-11;0.0;0.0;0.0
2016-02-12;0.0;0.0;0.0
2016-02-13;4.1;4.8;2.3
2016-02-14;11.6;9.5;10.2
2016-02-15;0.4;0.2;1.0
2016-02-16;0.0;0.0;0.0
2016-02-17;0.0;0.0;0.0
2016-02-18;0.0;0.0;0.0
2016-02-19;1.2;0.8;0.5
2016-02-20;15.7;7.9;8.1
2016-02-21;5.4;9.0;1.9
2016-02-22;9.8;10.9;11.8
2016-02-23;2.3;3.7;1.4
2016-02-24;0.1;0.0;0.2
2016-02-25;0.1;0.0;0.0
2016-02-26;0.0;0.0;0.0
2016-02-27;0.0;0.0;0.0
2016-02-28;0.0;0.0;0.0
2016-02-29;0.0;0.0;0.0
2016-03-01;4.3;4.0;4.5
2016-03-02;10.5;11.3;8.6
2016-03-03;0.2;0.8;0.0
2016-03-04;9.3;12.6;9.1
2016-03-05;0.1;0.0;0.0
2016-03-06;4.2;2.8;0.2
2016-03-07;0.1;0.0;0.0
2016-03-08;0.8;0.1;0.2
2016-03-09;0.0;0.0;0.0
2016-03-10;0.0;0.0;0.0
2016-03-11;0.0;0.0;0.0
2016-03-12;0.0;0.0;0.0
2016-03-13;0.0;0.0;0.0
2016-03-14;0.0;0.0;0.0
2016-03-15;0.0;0.0;0.0
2016-03-16;0.0;0.0;0.0
2016-03-17;0.0;0.0;0.0
2016-03-18;0.0;0.0;0.0
2016-03-19;0.0;0.0;0.0
2016-03-20;0.3;0.3;0.1
2016-03-21;0.3;0.3;0.2
2016-03-22;0.1;0.1;0.7
2016-03-23;0.1;0.3;0.2
2016-03-24;2.2;2.2;1.3
2016-03-25;6.5;5.9;4.9
2016-03-26;1.8;1.3;1.3
2016-03-27;2.1;3.0;1.8
2016-03-28;4.3;6.8;2.9
2016-03-29;0.5;1.2;0.2
2016-03-30;0.5;0.0;0.1
2016-03-31;0.0;0.0;0.0
2016-04-01;0.0;0.0;0.0
2016-04-02;0.0;0.0;0.1
2016-04-03;0.0;0.0;0.8
2016-04-04;0.1;0.3;1.2
2016-04-05;3.7;3.4;5.0
2016-04-06;4.2;1.4;0.1
2016-04-07;0.1;0.0;1.5
2016-04-08;0.0;0.0;0.0
2016-04-09;0.0;0.0;0.0
2016-04-10;0.0;0.0;0.0
2016-04-11;0.0;0.0;1.1
2016-04-12;4.0;3.1;7.1
2016-04-13;0.4;0.0;0.0
2016-04-14;3.3;1.9;5.3
2016-04-15;2.0;3.1;0.7
2016-04-16;0.6;1.5;1.9
2016-04-17;1.0;1.1;1.3
2016-04-18;0.1;0.1;0.0
2016-04-19;0.0;0.0;0.0
2016-04-20;0.0;0.0;0.0
2016-04-21;0.0;0.0;0.0
2016-04-22;0.0;0.0;0.0
2016-04-23;0.0;0.8;0.1
2016-04-24;3.7;4.2;0.2
2016-04-25;6.3;7.1;5.2
2016-04-26;9.9;6.1;6.7
2016-04-27;6.3;3.6;6.1
2016-04-28;0.7;2.8;2.4
2016-04-29;7.4;9.2;5.2
2016-04-30;0.1;0.0;0.2
2016-05-01;0.0;0.0;0.0
